<?xml version='1.0' encoding='UTF-8' ?>
<svg xmlns='http://www.w3.org/2000/svg' xmlns:xlink='http://www.w3.org/1999/xlink' viewBox='0 0 792.00 468.00'>
<defs>
  <style type='text/css'><![CDATA[
    line, polyline, polygon, path, rect, circle {
      fill: none;
      stroke: #000000;
      stroke-linecap: round;
      stroke-linejoin: round;
      stroke-miterlimit: 10.00;
    }
  ]]></style>
</defs>
<rect width='100%' height='100%' style='stroke: none; fill: #FFFFFF;'/>
<rect x='0.00' y='-0.00000000000011' width='792.00' height='468.00' style='stroke-width: 1.07; stroke: #FFFFFF; fill: #FFFFFF;' />
<defs>
  <clipPath id='cpNDAuNDd8NzAxLjczfDQzNi41MXw1LjQ4'>
    <rect x='40.47' y='5.48' width='661.26' height='431.03' />
  </clipPath>
</defs>
<rect x='40.47' y='5.48' width='661.26' height='431.03' style='stroke-width: 1.07; stroke: none; fill: #EBEBEB;' clip-path='url(#cpNDAuNDd8NzAxLjczfDQzNi41MXw1LjQ4)' />
<polyline points='40.47,388.03 701.73,388.03 ' style='stroke-width: 0.53; stroke: #FFFFFF; stroke-linecap: butt;' clip-path='url(#cpNDAuNDd8NzAxLjczfDQzNi41MXw1LjQ4)' />
<polyline points='40.47,306.32 701.73,306.32 ' style='stroke-width: 0.53; stroke: #FFFFFF; stroke-linecap: butt;' clip-path='url(#cpNDAuNDd8NzAxLjczfDQzNi41MXw1LjQ4)' />
<polyline points='40.47,224.61 701.73,224.61 ' style='stroke-width: 0.53; stroke: #FFFFFF; stroke-linecap: butt;' clip-path='url(#cpNDAuNDd8NzAxLjczfDQzNi41MXw1LjQ4)' />
<polyline points='40.47,142.89 701.73,142.89 ' style='stroke-width: 0.53; stroke: #FFFFFF; stroke-linecap: butt;' clip-path='url(#cpNDAuNDd8NzAxLjczfDQzNi41MXw1LjQ4)' />
<polyline points='40.47,61.18 701.73,61.18 ' style='stroke-width: 0.53; stroke: #FFFFFF; stroke-linecap: butt;' clip-path='url(#cpNDAuNDd8NzAxLjczfDQzNi41MXw1LjQ4)' />
<polyline points='110.59,436.51 110.59,5.48 ' style='stroke-width: 0.53; stroke: #FFFFFF; stroke-linecap: butt;' clip-path='url(#cpNDAuNDd8NzAxLjczfDQzNi41MXw1LjQ4)' />
<polyline points='270.90,436.51 270.90,5.48 ' style='stroke-width: 0.53; stroke: #FFFFFF; stroke-linecap: butt;' clip-path='url(#cpNDAuNDd8NzAxLjczfDQzNi41MXw1LjQ4)' />
<polyline points='431.21,436.51 431.21,5.48 ' style='stroke-width: 0.53; stroke: #FFFFFF; stroke-linecap: butt;' clip-path='url(#cpNDAuNDd8NzAxLjczfDQzNi41MXw1LjQ4)' />
<polyline points='591.52,436.51 591.52,5.48 ' style='stroke-width: 0.53; stroke: #FFFFFF; stroke-linecap: butt;' clip-path='url(#cpNDAuNDd8NzAxLjczfDQzNi41MXw1LjQ4)' />
<polyline points='40.47,428.88 701.73,428.88 ' style='stroke-width: 1.07; stroke: #FFFFFF; stroke-linecap: butt;' clip-path='url(#cpNDAuNDd8NzAxLjczfDQzNi41MXw1LjQ4)' />
<polyline points='40.47,347.17 701.73,347.17 ' style='stroke-width: 1.07; stroke: #FFFFFF; stroke-linecap: butt;' clip-path='url(#cpNDAuNDd8NzAxLjczfDQzNi41MXw1LjQ4)' />
<polyline points='40.47,265.46 701.73,265.46 ' style='stroke-width: 1.07; stroke: #FFFFFF; stroke-linecap: butt;' clip-path='url(#cpNDAuNDd8NzAxLjczfDQzNi41MXw1LjQ4)' />
<polyline points='40.47,183.75 701.73,183.75 ' style='stroke-width: 1.07; stroke: #FFFFFF; stroke-linecap: butt;' clip-path='url(#cpNDAuNDd8NzAxLjczfDQzNi41MXw1LjQ4)' />
<polyline points='40.47,102.04 701.73,102.04 ' style='stroke-width: 1.07; stroke: #FFFFFF; stroke-linecap: butt;' clip-path='url(#cpNDAuNDd8NzAxLjczfDQzNi41MXw1LjQ4)' />
<polyline points='40.47,20.33 701.73,20.33 ' style='stroke-width: 1.07; stroke: #FFFFFF; stroke-linecap: butt;' clip-path='url(#cpNDAuNDd8NzAxLjczfDQzNi41MXw1LjQ4)' />
<polyline points='190.74,436.51 190.74,5.48 ' style='stroke-width: 1.07; stroke: #FFFFFF; stroke-linecap: butt;' clip-path='url(#cpNDAuNDd8NzAxLjczfDQzNi41MXw1LjQ4)' />
<polyline points='351.05,436.51 351.05,5.48 ' style='stroke-width: 1.07; stroke: #FFFFFF; stroke-linecap: butt;' clip-path='url(#cpNDAuNDd8NzAxLjczfDQzNi41MXw1LjQ4)' />
<polyline points='511.36,436.51 511.36,5.48 ' style='stroke-width: 1.07; stroke: #FFFFFF; stroke-linecap: butt;' clip-path='url(#cpNDAuNDd8NzAxLjczfDQzNi41MXw1LjQ4)' />
<polyline points='671.67,436.51 671.67,5.48 ' style='stroke-width: 1.07; stroke: #FFFFFF; stroke-linecap: butt;' clip-path='url(#cpNDAuNDd8NzAxLjczfDQzNi41MXw1LjQ4)' />
<polyline points='70.52,391.97 78.53,379.45 86.54,374.16 94.55,360.72 102.59,362.95 110.60,358.21 118.61,339.27 126.62,352.31 134.65,360.49 142.66,370.61 150.67,380.04 158.68,376.28 166.71,369.77 174.72,362.92 182.73,345.88 190.74,349.12 198.77,342.10 206.78,345.46 214.79,339.90 222.80,339.64 230.84,347.10 238.85,352.05 246.86,349.18 254.87,348.84 262.90,320.33 270.91,318.02 278.92,318.18 286.93,310.86 294.96,305.78 302.97,291.24 310.98,278.71 318.99,283.05 327.02,279.37 335.03,269.31 343.04,262.91 351.05,254.25 359.08,256.38 367.09,252.48 375.10,239.93 383.11,220.55 391.15,204.30 399.16,199.93 407.17,181.47 415.18,163.53 423.21,155.80 431.22,162.47 439.23,164.25 447.24,173.60 455.27,172.78 463.28,181.69 471.29,185.55 479.30,182.92 487.33,177.87 495.34,172.46 503.35,164.25 511.36,159.61 519.40,151.95 527.41,145.98 535.42,143.77 543.43,140.10 551.46,139.54 559.47,135.22 567.48,139.76 575.49,145.61 583.52,154.17 591.53,161.50 599.54,163.81 607.55,166.41 615.58,166.19 623.59,157.61 631.60,145.00 639.61,126.73 647.64,113.70 655.65,99.85 663.66,81.31 671.67,70.88 ' style='stroke-width: 1.07; stroke: #F8766D; stroke-linecap: butt;' clip-path='url(#cpNDAuNDd8NzAxLjczfDQzNi41MXw1LjQ4)' />
<polyline points='70.52,381.62 78.53,365.78 86.54,363.84 94.55,355.18 102.59,353.98 110.60,348.04 118.61,340.22 126.62,353.89 134.65,383.28 142.66,410.04 150.67,416.92 158.68,392.37 166.71,401.91 174.72,393.75 182.73,370.36 190.74,351.82 198.77,309.20 206.78,310.74 214.79,329.60 222.80,311.75 230.84,314.67 238.85,319.70 246.86,312.43 254.87,307.49 262.90,258.03 270.91,242.47 278.92,245.51 286.93,232.30 294.96,236.43 302.97,252.65 310.98,262.47 318.99,275.10 327.02,280.62 335.03,266.15 343.04,270.69 351.05,241.28 359.08,217.75 367.09,199.39 375.10,188.59 383.11,168.31 391.15,148.49 399.16,140.12 407.17,123.19 415.18,105.89 423.21,86.52 431.22,97.28 439.23,89.03 447.24,103.12 455.27,100.28 463.28,114.16 471.29,128.11 479.30,145.36 487.33,143.71 495.34,143.91 503.35,133.07 511.36,126.46 519.40,113.50 527.41,99.33 535.42,100.66 543.43,101.73 551.46,109.37 559.47,109.57 567.48,104.57 575.49,112.92 583.52,124.32 591.53,131.54 599.54,131.30 607.55,130.47 615.58,130.55 623.59,133.96 631.60,122.37 639.61,98.00 647.64,79.30 655.65,58.62 663.66,43.19 671.67,25.07 ' style='stroke-width: 1.07; stroke: #00BA38; stroke-linecap: butt;' clip-path='url(#cpNDAuNDd8NzAxLjczfDQzNi41MXw1LjQ4)' />
<polyline points='70.52,407.80 78.53,398.16 86.54,381.82 94.55,362.08 102.59,367.07 110.60,365.57 118.61,336.11 126.62,347.43 134.65,340.85 142.66,356.80 150.67,369.68 158.68,372.81 166.71,345.01 174.72,331.99 182.73,328.23 190.74,353.35 198.77,376.76 206.78,381.73 214.79,363.71 222.80,384.32 230.84,404.53 238.85,407.31 246.86,408.40 254.87,405.64 262.90,397.01 270.91,400.25 278.92,396.36 286.93,390.32 294.96,375.55 302.97,340.20 310.98,307.56 318.99,296.01 327.02,288.66 335.03,280.71 343.04,267.89 351.05,267.73 359.08,276.54 367.09,278.32 375.10,270.09 383.11,252.18 391.15,239.05 399.16,237.00 407.17,229.08 415.18,211.77 423.21,211.28 431.22,212.19 439.23,215.74 447.24,220.66 455.27,220.26 463.28,218.05 471.29,216.06 479.30,203.00 487.33,198.09 495.34,193.82 503.35,190.31 511.36,186.93 519.40,182.09 527.41,179.91 535.42,175.34 543.43,167.67 551.46,160.32 559.47,151.54 567.48,159.99 575.49,164.56 583.52,171.26 591.53,178.45 599.54,184.54 607.55,192.86 615.58,193.33 623.59,181.29 631.60,167.79 639.61,155.66 647.64,147.76 655.65,139.05 663.66,118.20 671.67,115.89 ' style='stroke-width: 1.07; stroke: #619CFF; stroke-linecap: butt;' clip-path='url(#cpNDAuNDd8NzAxLjczfDQzNi41MXw1LjQ4)' />
<defs>
  <clipPath id='cpMC4wMHw3OTIuMDB8NDY4LjAwfDAuMDA='>
    <rect x='0.00' y='0.00' width='792.00' height='468.00' />
  </clipPath>
</defs>
<g clip-path='url(#cpMC4wMHw3OTIuMDB8NDY4LjAwfDAuMDA=)'><text x='18.41' y='432.03' style='font-size: 8.80px; fill: #4D4D4D; font-family: Arial;' textLength='17.13px' lengthAdjust='spacingAndGlyphs'>0.10</text></g>
<g clip-path='url(#cpMC4wMHw3OTIuMDB8NDY4LjAwfDAuMDA=)'><text x='18.41' y='350.32' style='font-size: 8.80px; fill: #4D4D4D; font-family: Arial;' textLength='17.13px' lengthAdjust='spacingAndGlyphs'>0.15</text></g>
<g clip-path='url(#cpMC4wMHw3OTIuMDB8NDY4LjAwfDAuMDA=)'><text x='18.41' y='268.61' style='font-size: 8.80px; fill: #4D4D4D; font-family: Arial;' textLength='17.13px' lengthAdjust='spacingAndGlyphs'>0.20</text></g>
<g clip-path='url(#cpMC4wMHw3OTIuMDB8NDY4LjAwfDAuMDA=)'><text x='18.41' y='186.90' style='font-size: 8.80px; fill: #4D4D4D; font-family: Arial;' textLength='17.13px' lengthAdjust='spacingAndGlyphs'>0.25</text></g>
<g clip-path='url(#cpMC4wMHw3OTIuMDB8NDY4LjAwfDAuMDA=)'><text x='18.41' y='105.19' style='font-size: 8.80px; fill: #4D4D4D; font-family: Arial;' textLength='17.13px' lengthAdjust='spacingAndGlyphs'>0.30</text></g>
<g clip-path='url(#cpMC4wMHw3OTIuMDB8NDY4LjAwfDAuMDA=)'><text x='18.41' y='23.48' style='font-size: 8.80px; fill: #4D4D4D; font-family: Arial;' textLength='17.13px' lengthAdjust='spacingAndGlyphs'>0.35</text></g>
<polyline points='37.73,428.88 40.47,428.88 ' style='stroke-width: 1.07; stroke: #333333; stroke-linecap: butt;' clip-path='url(#cpMC4wMHw3OTIuMDB8NDY4LjAwfDAuMDA=)' />
<polyline points='37.73,347.17 40.47,347.17 ' style='stroke-width: 1.07; stroke: #333333; stroke-linecap: butt;' clip-path='url(#cpMC4wMHw3OTIuMDB8NDY4LjAwfDAuMDA=)' />
<polyline points='37.73,265.46 40.47,265.46 ' style='stroke-width: 1.07; stroke: #333333; stroke-linecap: butt;' clip-path='url(#cpMC4wMHw3OTIuMDB8NDY4LjAwfDAuMDA=)' />
<polyline points='37.73,183.75 40.47,183.75 ' style='stroke-width: 1.07; stroke: #333333; stroke-linecap: butt;' clip-path='url(#cpMC4wMHw3OTIuMDB8NDY4LjAwfDAuMDA=)' />
<polyline points='37.73,102.04 40.47,102.04 ' style='stroke-width: 1.07; stroke: #333333; stroke-linecap: butt;' clip-path='url(#cpMC4wMHw3OTIuMDB8NDY4LjAwfDAuMDA=)' />
<polyline points='37.73,20.33 40.47,20.33 ' style='stroke-width: 1.07; stroke: #333333; stroke-linecap: butt;' clip-path='url(#cpMC4wMHw3OTIuMDB8NDY4LjAwfDAuMDA=)' />
<polyline points='190.74,439.25 190.74,436.51 ' style='stroke-width: 1.07; stroke: #333333; stroke-linecap: butt;' clip-path='url(#cpMC4wMHw3OTIuMDB8NDY4LjAwfDAuMDA=)' />
<polyline points='351.05,439.25 351.05,436.51 ' style='stroke-width: 1.07; stroke: #333333; stroke-linecap: butt;' clip-path='url(#cpMC4wMHw3OTIuMDB8NDY4LjAwfDAuMDA=)' />
<polyline points='511.36,439.25 511.36,436.51 ' style='stroke-width: 1.07; stroke: #333333; stroke-linecap: butt;' clip-path='url(#cpMC4wMHw3OTIuMDB8NDY4LjAwfDAuMDA=)' />
<polyline points='671.67,439.25 671.67,436.51 ' style='stroke-width: 1.07; stroke: #333333; stroke-linecap: butt;' clip-path='url(#cpMC4wMHw3OTIuMDB8NDY4LjAwfDAuMDA=)' />
<g clip-path='url(#cpMC4wMHw3OTIuMDB8NDY4LjAwfDAuMDA=)'><text x='180.95' y='447.74' style='font-size: 8.80px; fill: #4D4D4D; font-family: Arial;' textLength='19.58px' lengthAdjust='spacingAndGlyphs'>1960</text></g>
<g clip-path='url(#cpMC4wMHw3OTIuMDB8NDY4LjAwfDAuMDA=)'><text x='341.26' y='447.74' style='font-size: 8.80px; fill: #4D4D4D; font-family: Arial;' textLength='19.58px' lengthAdjust='spacingAndGlyphs'>1980</text></g>
<g clip-path='url(#cpMC4wMHw3OTIuMDB8NDY4LjAwfDAuMDA=)'><text x='501.58' y='447.74' style='font-size: 8.80px; fill: #4D4D4D; font-family: Arial;' textLength='19.58px' lengthAdjust='spacingAndGlyphs'>2000</text></g>
<g clip-path='url(#cpMC4wMHw3OTIuMDB8NDY4LjAwfDAuMDA=)'><text x='661.89' y='447.74' style='font-size: 8.80px; fill: #4D4D4D; font-family: Arial;' textLength='19.58px' lengthAdjust='spacingAndGlyphs'>2020</text></g>
<g clip-path='url(#cpMC4wMHw3OTIuMDB8NDY4LjAwfDAuMDA=)'><text x='359.48' y='460.21' style='font-size: 11.00px; font-family: Arial;' textLength='23.24px' lengthAdjust='spacingAndGlyphs'>Year</text></g>
<g clip-path='url(#cpMC4wMHw3OTIuMDB8NDY4LjAwfDAuMDA=)'><text transform='translate(13.35,235.67) rotate(-90)' style='font-size: 11.00px; font-family: Arial;' textLength='29.35px' lengthAdjust='spacingAndGlyphs'>Share</text></g>
<rect x='712.69' y='181.76' width='73.83' height='78.47' style='stroke-width: 1.07; stroke: none; fill: #FFFFFF;' clip-path='url(#cpMC4wMHw3OTIuMDB8NDY4LjAwfDAuMDA=)' />
<g clip-path='url(#cpMC4wMHw3OTIuMDB8NDY4LjAwfDAuMDA=)'><text x='718.17' y='196.27' style='font-size: 11.00px; font-family: Arial;' textLength='45.86px' lengthAdjust='spacingAndGlyphs'>Publisher</text></g>
<rect x='718.17' y='202.91' width='17.28' height='17.28' style='stroke-width: 1.07; stroke: none; fill: #F2F2F2;' clip-path='url(#cpMC4wMHw3OTIuMDB8NDY4LjAwfDAuMDA=)' />
<line x1='719.90' y1='211.55' x2='733.72' y2='211.55' style='stroke-width: 1.07; stroke: #F8766D; stroke-linecap: butt;' clip-path='url(#cpMC4wMHw3OTIuMDB8NDY4LjAwfDAuMDA=)' />
<rect x='718.17' y='220.19' width='17.28' height='17.28' style='stroke-width: 1.07; stroke: none; fill: #F2F2F2;' clip-path='url(#cpMC4wMHw3OTIuMDB8NDY4LjAwfDAuMDA=)' />
<line x1='719.90' y1='228.83' x2='733.72' y2='228.83' style='stroke-width: 1.07; stroke: #00BA38; stroke-linecap: butt;' clip-path='url(#cpMC4wMHw3OTIuMDB8NDY4LjAwfDAuMDA=)' />
<rect x='718.17' y='237.47' width='17.28' height='17.28' style='stroke-width: 1.07; stroke: none; fill: #F2F2F2;' clip-path='url(#cpMC4wMHw3OTIuMDB8NDY4LjAwfDAuMDA=)' />
<line x1='719.90' y1='246.11' x2='733.72' y2='246.11' style='stroke-width: 1.07; stroke: #619CFF; stroke-linecap: butt;' clip-path='url(#cpMC4wMHw3OTIuMDB8NDY4LjAwfDAuMDA=)' />
<g clip-path='url(#cpMC4wMHw3OTIuMDB8NDY4LjAwfDAuMDA=)'><text x='740.93' y='214.70' style='font-size: 8.80px; font-family: Arial;' textLength='40.11px' lengthAdjust='spacingAndGlyphs'>Combined</text></g>
<g clip-path='url(#cpMC4wMHw3OTIuMDB8NDY4LjAwfDAuMDA=)'><text x='740.93' y='231.98' style='font-size: 8.80px; font-family: Arial;' textLength='12.71px' lengthAdjust='spacingAndGlyphs'>DC</text></g>
<g clip-path='url(#cpMC4wMHw3OTIuMDB8NDY4LjAwfDAuMDA=)'><text x='740.93' y='249.26' style='font-size: 8.80px; font-family: Arial;' textLength='26.40px' lengthAdjust='spacingAndGlyphs'>Marvel</text></g>
</svg>
